[
  {
    "email": "aman@your.house",
    "fname": "Frank",
    "lname": "Niceman",
    "hpass": "pbkdf2:sha256:50000$AczpSEqU$329603b5cfb63a0c9b5e589ab42cfa6b8757bb2780651f82a960960115ed39b1",
    "notifications": [
      {
        "user": "awoman@your.house",
        "data": "Lorem Ipsum"
      },
      {
        "user": "someoneelse@your.house",
        "data": "Lorem Ipsum"
      }
    ]
  },
  {
    "email": "awoman@your.house",
    "fname": "Blanch",
    "lname": "Nicewoman",
    "hpass": "pbkdf2:sha256:50000$AczpSEqU$329603b5cfb63a0c9b5e589ab42cfa6b8757bb2780651f82a960960115ed39b1",
    "notifications": [
      {
        "user": "awoman@your.house",
        "data": "Lorem Ipsum"
      },
      {
        "user": "someoneelse@your.house",
        "data": "Lorem Ipsum"
      }
    ]
  },
  {
    "email": "someoneelse@your.house",
    "fname": "Jack",
    "lname": "Squat",
    "hpass": "pbkdf2:sha256:50000$AczpSEqU$329603b5cfb63a0c9b5e589ab42cfa6b8757bb2780651f82a960960115ed39b1",
    "notifications": [
      {
        "user": "awoman@your.house",
        "data": "Lorem Ipsum"
      },
      {
        "user": "someoneelse@your.house",
        "data": "Lorem Ipsum"
      }
    ]
  }
]
